{
	"<Controllers":{
		"GeneratePage":{
			"Controls":{
				"FontSize":{
					"Controller":"FontSizeControl",
					"IsTemplate":false
				},
				"TextAlign":{
					"Controller":"TextAlignControl",
					"IsTemplate":false
				},
				"Size":{
					"Controller":"SizeControl",
					"IsTemplate":false
				},
				"Row":{
					"Controller":"RowControl",
					"IsTemplate":false
				},
				"Column":{
					"Controller":"ColumnControl",
					"IsTemplate":false
				},
				"Flex":{
					"Controller":"FlexControl",
					"IsTemplate":false
				},
				"Visibility":{
					"Controller":"VisibilityControl",
					"IsTemplate":false
				},
				"Transition":{
					"Controller":"TransitionControl",
					"IsTemplate":false
				},
				"ContentMargin":{
					"Controller":"ContentMarginControl",
					"IsTemplate":false
				},
				"ContentPadding":{
					"Controller":"ContentPaddingControl",
					"IsTemplate":false
				},
				"Margin":{
					"Controller":"MarginControl",
					"IsTemplate":false
				},
				"Padding":{
					"Controller":"PaddingControl",
					"IsTemplate":false
				}
			}
		},
		"GeneratePage/FontSizeControl":{
		},
		"GeneratePage/TextAlignControl":{
		},
		"GeneratePage/SizeControl":{
		},
		"GeneratePage/RowControl":{
		},
		"GeneratePage/ColumnControl":{
		},
		"GeneratePage/FlexControl":{
		},
		"GeneratePage/VisibilityControl":{
		},
		"GeneratePage/TransitionControl":{
		},
		"GeneratePage/ContentMarginControl":{
		},
		"GeneratePage/ContentPaddingControl":{
		},
		"GeneratePage/MarginControl":{
		},
		"GeneratePage/PaddingControl":{
		}
	}
}